<?xml version="1.0" encoding="UTF-8" standalone="no"?>
<!-- Created with Inkscape (http://www.inkscape.org/) -->

<svg
   xmlns:dc="http://purl.org/dc/elements/1.1/"
   xmlns:cc="http://creativecommons.org/ns#"
   xmlns:rdf="http://www.w3.org/1999/02/22-rdf-syntax-ns#"
   xmlns:svg="http://www.w3.org/2000/svg"
   xmlns="http://www.w3.org/2000/svg"
   xmlns:sodipodi="http://sodipodi.sourceforge.net/DTD/sodipodi-0.dtd"
   xmlns:inkscape="http://www.inkscape.org/namespaces/inkscape"
   width="60.923073mm"
   height="74.590439mm"
   viewBox="0 0 60.923073 74.590439"
   version="1.1"
   id="svg8"
   sodipodi:docname="icons8-play-80.svg"
   inkscape:version="0.92.5 (2060ec1f9f, 2020-04-08)">
  <defs
     id="defs2" />
  <sodipodi:namedview
     id="base"
     pagecolor="#ffffff"
     bordercolor="#666666"
     borderopacity="1.0"
     inkscape:pageopacity="0.0"
     inkscape:pageshadow="2"
     inkscape:zoom="3.959798"
     inkscape:cx="130.06009"
     inkscape:cy="188.79019"
     inkscape:document-units="mm"
     inkscape:current-layer="layer1"
     showgrid="false"
     inkscape:window-width="1920"
     inkscape:window-height="1024"
     inkscape:window-x="0"
     inkscape:window-y="0"
     inkscape:window-maximized="1" />
  <metadata
     id="metadata5">
    <rdf:RDF>
      <cc:Work
         rdf:about="">
        <dc:format>image/svg+xml</dc:format>
        <dc:type
           rdf:resource="http://purl.org/dc/dcmitype/StillImage" />
        <dc:title></dc:title>
      </cc:Work>
    </rdf:RDF>
  </metadata>
  <g
     inkscape:label="Layer 1"
     inkscape:groupmode="layer"
     id="layer1"
     transform="translate(-58.971767,-35.540232)">
    <path
       style="fill:#000000;stroke-width:0.26458335"
       d="M 58.971767,72.835448 V 35.540232 l 6.680729,4.05719 c 3.674402,2.23146 16.86057,10.24495 29.30261,17.807766 12.442034,7.56281 23.187434,14.08028 23.878654,14.48326 1.66351,0.96983 1.82999,0.76192 -2.91041,3.63467 -2.29196,1.38896 -13.03736,7.919111 -23.878664,14.511461 -10.841304,6.59234 -22.717788,13.810831 -26.39219,16.041091 l -6.680729,4.055 z m 13.938055,26.185171 c 6.231311,-3.78826 18.440064,-11.1999 27.130568,-16.47032 8.69052,-5.270411 15.80051,-9.642091 15.79999,-9.714851 -5.1e-4,-0.0728 -5.44405,-3.43149 -12.09675,-7.46385 -6.652704,-4.03236 -18.862144,-11.443996 -27.132105,-16.470306 -8.269957,-5.02632 -15.086284,-9.13876 -15.147396,-9.13876 -0.06111,0 -0.111112,14.88282 -0.111112,33.072916 0,18.190101 0.05111,33.072922 0.113574,33.072922 0.06247,0 5.21192,-3.09949 11.443231,-6.887751 z m -8.891577,-1.55953 c -0.657695,-0.65769 -0.680525,-0.90796 -0.132787,-1.4557 0.72881,-0.72881 2.10436,-0.12358 1.912546,0.8415 -0.172752,0.86917 -1.177908,1.21606 -1.779759,0.6142 z m -0.275491,-4.76603 c -0.435484,-0.81371 0.09489,-1.6587 0.97481,-1.55307 1.463808,0.17572 1.463808,1.84037 0,2.01609 -0.473587,0.0568 -0.772592,-0.0852 -0.97481,-0.46302 z m 0,-4.49792 c -0.435484,-0.81371 0.09489,-1.65869 0.97481,-1.55307 1.463808,0.17572 1.463808,1.84037 0,2.01609 -0.473587,0.0568 -0.772592,-0.0852 -0.97481,-0.46302 z m 0.142704,-4.40038 c -0.859415,-0.85941 0.249508,-2.2905 1.257266,-1.62253 0.738149,0.48927 0.84789,1.06708 0.305652,1.60931 -0.540453,0.54046 -1.031529,0.54461 -1.562918,0.0132 z m 0.02211,-4.566 c -0.561169,-0.62008 -0.551768,-0.918561 0.04597,-1.459511 0.755073,-0.68333 1.897395,-0.23015 1.897395,0.752741 0,1.01464 -1.25251,1.47016 -1.943368,0.70677 z m 0.110679,-4.523831 c -0.657695,-0.6577 -0.680524,-0.90797 -0.132787,-1.45571 0.72881,-0.72881 2.104361,-0.12358 1.912546,0.8415 -0.172752,0.86917 -1.177908,1.21606 -1.779759,0.61421 z m 39.825843,-3.27537 c -0.99213,-0.72546 0.0625,-2.52478 1.09904,-1.87503 0.89011,0.55798 0.54343,2.22059 -0.46302,2.22059 -0.0899,0 -0.37611,-0.1555 -0.63602,-0.34556 z m -40.101334,-1.49067 c -0.435484,-0.81371 0.09489,-1.65869 0.97481,-1.55307 1.463808,0.17572 1.463808,1.84037 0,2.01609 -0.473587,0.0568 -0.772592,-0.0852 -0.97481,-0.46302 z m 34.29606,-2.08721 c -0.56117,-0.62009 -0.55177,-0.91857 0.046,-1.45951 0.75508,-0.68334 1.8974,-0.23015 1.8974,0.75274 0,1.01464 -1.25251,1.47016 -1.94337,0.70677 z m -34.29606,-2.41071 c -0.435484,-0.8137 0.09489,-1.65869 0.97481,-1.55306 1.463808,0.17571 1.463808,1.84037 0,2.01608 -0.473587,0.0568 -0.772592,-0.0852 -0.97481,-0.46302 z m 28.61943,-0.86252 c -0.89807,-0.89807 0.15806,-2.39426 1.27,-1.79917 0.93389,0.4998 0.52967,2.11667 -0.52917,2.11667 -0.23283,0 -0.56621,-0.14288 -0.74083,-0.3175 z M 63.88546,61.042588 c -0.859415,-0.85941 0.249508,-2.2905 1.257266,-1.62253 0.738149,0.48927 0.84789,1.06708 0.305652,1.60932 -0.540453,0.54045 -1.031529,0.5446 -1.562918,0.0132 z m 22.754166,0 c -0.85941,-0.85941 0.24951,-2.2905 1.25727,-1.62253 0.73815,0.48927 0.84789,1.06708 0.30565,1.60932 -0.54045,0.54045 -1.03153,0.5446 -1.56292,0.0132 z m -5.704587,-3.41725 c -0.190744,-0.22983 -0.255453,-0.67662 -0.155612,-1.07442 0.235706,-0.93912 1.823369,-0.86346 1.959009,0.0934 0.16508,1.16457 -1.08618,1.84527 -1.803397,0.98106 z m -17.027473,-1.14874 c -0.561169,-0.62009 -0.551768,-0.91857 0.04597,-1.45952 0.755074,-0.683326 1.897396,-0.230136 1.897396,0.75274 0,1.01465 -1.25251,1.47016 -1.943368,0.70678 z m 11.21227,-2.410706 c -0.435483,-0.81371 0.09489,-1.6587 0.974813,-1.55307 0.885997,0.10636 1.369679,0.8376 0.973036,1.47107 -0.434964,0.69467 -1.593844,0.74346 -1.947849,0.082 z m -11.101591,-2.11313 c -0.657695,-0.6577 -0.680525,-0.90797 -0.132787,-1.4557 0.72881,-0.72881 2.10436,-0.12359 1.912546,0.8415 -0.172752,0.86917 -1.177908,1.21605 -1.779759,0.6142 z m 5.589772,-1.13064 c -0.797377,-0.79738 -0.0059,-1.97756 1.134272,-1.69138 0.517194,0.1298 0.664895,0.33579 0.664895,0.92728 0,1.00393 -1.094504,1.46876 -1.799167,0.7641 z m -5.865263,-3.6354 c -0.435484,-0.81371 0.09489,-1.65869 0.97481,-1.55307 1.463808,0.17572 1.463808,1.84038 0,2.01609 -0.473587,0.0568 -0.772592,-0.0852 -0.97481,-0.46302 z"
       id="path828"
       inkscape:connector-curvature="0" />
  </g>
</svg>
