<?xml version="1.0" encoding="UTF-8" standalone="no"?>
<!-- Created with Inkscape (http://www.inkscape.org/) -->

<svg
   xmlns:dc="http://purl.org/dc/elements/1.1/"
   xmlns:cc="http://creativecommons.org/ns#"
   xmlns:rdf="http://www.w3.org/1999/02/22-rdf-syntax-ns#"
   xmlns:svg="http://www.w3.org/2000/svg"
   xmlns="http://www.w3.org/2000/svg"
   xmlns:sodipodi="http://sodipodi.sourceforge.net/DTD/sodipodi-0.dtd"
   xmlns:inkscape="http://www.inkscape.org/namespaces/inkscape"
   width="73.46431mm"
   height="69.585449mm"
   viewBox="0 0 73.464311 69.585453"
   version="1.1"
   id="svg8"
   sodipodi:docname="icons8-down-left-80.svg"
   inkscape:version="0.92.5 (2060ec1f9f, 2020-04-08)">
  <defs
     id="defs2" />
  <sodipodi:namedview
     id="base"
     pagecolor="#ffffff"
     bordercolor="#666666"
     borderopacity="1.0"
     inkscape:pageopacity="0.0"
     inkscape:pageshadow="2"
     inkscape:zoom="2.8"
     inkscape:cx="262.08636"
     inkscape:cy="156.16028"
     inkscape:document-units="mm"
     inkscape:current-layer="layer1"
     showgrid="false"
     inkscape:window-width="1920"
     inkscape:window-height="1024"
     inkscape:window-x="0"
     inkscape:window-y="0"
     inkscape:window-maximized="1" />
  <metadata
     id="metadata5">
    <rdf:RDF>
      <cc:Work
         rdf:about="">
        <dc:format>image/svg+xml</dc:format>
        <dc:type
           rdf:resource="http://purl.org/dc/dcmitype/StillImage" />
        <dc:title></dc:title>
      </cc:Work>
    </rdf:RDF>
  </metadata>
  <g
     inkscape:label="Layer 1"
     inkscape:groupmode="layer"
     id="layer1"
     transform="translate(51.080641,-119.40779)">
    <path
       style="fill:#000000;stroke-width:0.26458335"
       d="m -37.324216,175.23488 -13.756425,-13.75833 13.756425,-13.75834 c 7.566033,-7.56708 13.846152,-13.75833 13.955816,-13.75833 0.109668,0 0.199393,4.16719 0.199393,9.26041 v 9.26042 h 10.932187 c 17.4934832,0 16.3162542,1.37906 16.3184212,-19.11614 l 0.0015,-13.95678 h 9.1502818 9.150284 l -0.441259,27.90818 -0.21837,3.06258 -0.314728,2.26927 c -0.926912,6.68327 -5.749374,12.10888 -11.192902,14.95561 -5.4435291,2.84674 -5.8372778,2.69257 -20.354661,2.80005 l -13.03073,0.0965 v 9.24663 c 0,5.08565 -0.08973,9.24663 -0.199393,9.24663 -0.109664,0 -6.389783,-6.19125 -13.955816,-13.75833 z m 25.60241,-6.94357 c 16.6599372,-0.11394 18.1453352,-0.4106 23.506881,-4.69479 7.188478,-5.74402 8.173003,-9.15337 8.173003,-28.30257 V 121.78904 H 13.078911 6.1997442 v 13.18204 c 0,15.30701 -0.8572969,15.33508 -2.3380204,17.28828 -2.0154643,1.37763 -2.0479536,2.33802 -16.7591128,2.33802 h -12.652868 v -7.73867 -7.73867 l -11.17786,11.17786 -11.17786,11.17785 11.111714,11.11427 11.111714,11.11426 0.07012,-7.65923 0.07012,-7.65923 z m -18.008868,7.6844 c -0.902086,-0.90208 0.200721,-2.35356 1.336146,-1.75859 0.880705,0.4615 0.417727,2.07609 -0.595313,2.07609 -0.232833,0 -0.566208,-0.14287 -0.740833,-0.3175 z m -3.439583,-3.43958 c -0.75669,-0.75669 -0.06037,-1.91173 1.057,-1.75333 1.118404,0.15854 0.845394,2.07083 -0.295646,2.07083 -0.24412,0 -0.586729,-0.14288 -0.761354,-0.3175 z m -3.439584,-3.43958 c -0.711678,-0.71168 -0.157568,-1.79917 0.916733,-1.79917 0.747115,0 1.15896,0.72882 0.859695,1.52135 -0.248197,0.6573 -1.241591,0.81265 -1.776428,0.27782 z m -3.439583,-3.43959 c -0.711678,-0.71168 -0.157569,-1.79916 0.916732,-1.79916 0.784038,0 1.267023,0.86889 0.882434,1.5875 -0.314015,0.58674 -1.30724,0.70359 -1.799166,0.21166 z m 14.828039,0.0114 c -0.757711,-0.75771 -0.08221,-1.92799 1.018606,-1.7647 0.803328,0.11915 1.250119,0.87393 0.87344,1.47551 -0.355934,0.56846 -1.446144,0.73509 -1.892046,0.28919 z m 4.481372,-0.12833 c -0.367562,-0.6568 -0.06114,-1.40418 0.648766,-1.58236 1.16149,-0.29151 1.830499,0.77493 1.004383,1.60104 -0.540338,0.54034 -1.345396,0.53124 -1.653149,-0.0187 z m 4.767673,0.11695 c -0.572794,-0.57279 -0.380574,-1.50867 0.347395,-1.69138 1.241317,-0.31155 2.033146,1.14995 0.939999,1.73499 -0.659948,0.35319 -0.898679,0.34511 -1.287394,-0.0436 z m 4.455549,-0.0667 c -0.702855,-0.84689 0.329467,-2.14783 1.246222,-1.5705 0.9160752,0.5769 0.5897112,1.95466 -0.463021,1.95466 -0.255405,0 -0.607846,-0.17287 -0.783201,-0.38416 z m 4.5402852,0.0667 c -0.519975,-0.51997 -0.36226,-1.26095 0.336124,-1.57915 0.804468,-0.36654 1.463042,0.0722 1.463042,0.9747 0,0.85717 -1.157552,1.24607 -1.799166,0.60445 z m 4.455538,-0.0667 c -0.455083,-0.54834 -0.08795,-1.43839 0.671992,-1.62912 0.85115895,-0.21363 1.50032695,0.3265 1.27215895,1.05847 -0.305322,0.97947 -1.35030395,1.2862 -1.94415095,0.57065 z m 4.864955,-0.34747 c -0.478475,-0.32763 -0.667883,-1.16751 -0.349745,-1.55084 0.45561,-0.54898 1.49882,-0.44225 1.836031,0.18784 0.472882,0.88358 -0.663932,1.9261 -1.486286,1.363 z m 4.345932,-1.56217 c -0.653291,-0.17352 -0.82111,-1.19684 -0.284308,-1.73364 0.553966,-0.55397 1.543053,-0.36436 1.7248,0.33064 0.12654,0.48389 -0.469394,1.60833 -0.82119,1.54946 -0.10089,-0.0169 -0.379576,-0.0828 -0.619302,-0.14646 z m -50.2318432,-1.67493 c -0.395793,-0.73954 0.09885,-1.5875 0.926041,-1.5875 0.372051,0 0.762136,0.22291 0.926042,0.52917 0.395793,0.73954 -0.09885,1.5875 -0.926042,1.5875 -0.372051,0 -0.762135,-0.22291 -0.926041,-0.52917 z m 53.4393312,-1.46304 c -0.448519,-0.54043 0.06717,-1.71196 0.7535738,-1.71196 0.770466,0 1.352589,0.81682 1.084233,1.52136 -0.266703,0.7002 -1.32388,0.80984 -1.8378068,0.1906 z m 2.9215188,-3.42621 c -0.267364,-0.32215 -0.278646,-0.56806 -0.04917,-1.07171 0.537281,-1.1792 2.03735,-0.59494 1.850819,0.72088 -0.10636,0.75029 -1.280391,0.97891 -1.801649,0.35083 z m 2.281939,-3.88974 c -0.598242,-0.3348 -0.549799,-1.45941 0.07732,-1.79503 0.698079,-0.3736 0.74195,-0.36088 1.207921,0.35028 0.687655,1.04949 -0.202832,2.05049 -1.285241,1.44475 z m 0.822317,-4.47137 c -0.584608,-0.3405 -0.602573,-1.46191 -0.02857,-1.78314 1.12735,-0.6309 2.30796,0.957 1.273783,1.71321 -0.573174,0.41912 -0.639325,0.42283 -1.245216,0.0699 z m 0.330729,-4.40499 c -0.901414,-0.34314 -1.071748,-1.49184 -0.28375,-1.91356 1.039181,-0.55615 2.098226,0.79844 1.339231,1.71297 -0.348228,0.4196 -0.436226,0.43632 -1.055481,0.20059 z m -0.681776,-5.21786 c -0.324567,-1.29317 1.144636,-1.98884 1.844027,-0.87314 0.3985,0.6357 -0.08762,1.36487 -0.981271,1.47189 -0.555061,0.0665 -0.725482,-0.0518 -0.862756,-0.59875 z m 0.108038,-4.50333 c -0.369885,-0.81181 0.07433,-1.46304 0.997968,-1.46304 0.445823,0 0.671677,0.18987 0.790901,0.66489 0.335489,1.3367 -1.226045,2.03342 -1.788869,0.79815 z m 0,-4.49792 c -0.369885,-0.8118 0.07433,-1.46304 0.997968,-1.46304 0.445823,0 0.671677,0.18987 0.790901,0.66489 0.335489,1.3367 -1.226045,2.03342 -1.788869,0.79815 z m 0.09749,-4.16179 c -0.920139,-0.92014 0.400669,-2.63044 1.394458,-1.80567 0.789286,0.65505 0.337322,2.12317 -0.653625,2.12317 -0.232833,0 -0.566208,-0.14287 -0.740833,-0.3175 z"
       id="path1284"
       inkscape:connector-curvature="0"
       sodipodi:nodetypes="ccssscsccccccszccssccssscccscscccccccccsccscccsccscccsccccccccccccccccscssccscccccccccccscccscscssssccccccsccsccccccccccccscccsccccsc" />
  </g>
</svg>
